{
  "project_info": {
    "project_number": "565612014579",
    "firebase_url": "https://photoapp-24684.firebaseio.com",
    "project_id": "photoapp-24684",
    "storage_bucket": "photoapp-24684.appspot.com"
  },
  "client": [
    {
      "client_info": {
        "mobilesdk_app_id": "1:565612014579:android:a62f10dd0102ec64",
        "android_client_info": {
          "package_name": "com.example.maciek.photoapp"
        }
      },
      "oauth_client": [
        {
          "client_id": "565612014579-eg05tfnijthev7h6n3hr11jjeg4fcric.apps.googleusercontent.com",
          "client_type": 3
        }
      ],
      "api_key": [
        {
          "current_key": "AIzaSyCFf6n45y5yO9RQ9hT5mvNTUh9RE7ADEBQ"
        }
      ],
      "services": {
        "appinvite_service": {
          "other_platform_oauth_client": [
            {
              "client_id": "565612014579-eg05tfnijthev7h6n3hr11jjeg4fcric.apps.googleusercontent.com",
              "client_type": 3
            }
          ]
        }
      }
    }
  ],
  "configuration_version": "1"
}